1511803159000;14132385
1511803444000;14136141
1511803730000;14140099
1511804015000;14144476
1511804301000;14146719
1511804587000;14152887
1511804872000;14156344
1511805158000;14158660
1511805444000;14160911
1511805729000;14161002
1511806015000;14161004
1511806300000;14163084
1511806586000;14165902
1511806872000;14167247
1511807157000;14164217
1511807443000;14158810
1511807729000;14158809
1511808014000;14156819
1511808300000;14150087
1511808585000;14137181
1511808871000;14123067
1511809157000;14108462
1511809442000;14086593
1511809728000;14061630
1511810014000;14037392
1511810299000;14013241
1511810585000;13989513
1511810870000;13963792
1511811156000;13931273
1511811442000;13902119
1511811727000;13873710
1511812013000;13841792
1511812299000;13806760
1511812584000;13769123
1511812870000;13724321
1511813155000;13660289
1511813441000;13586906
1511813727000;13537867
1511814012000;13486486
1511814298000;13433570
1511814584000;13364435
1511814869000;13212730
1511815155000;13241782
1511815440000;13180863
1511815726000;13110858
1511816012000;13029911
1511816297000;12948681
1511816583000;12847479
1511816869000;12752169
1511817154000;12668294
1511817440000;12588937
1511817725000;12507307
1511818011000;12423282
1511818297000;12337215
1511818582000;12245453
1511818868000;12153941
1511819154000;12070128
1511819439000;11987563
1511819725000;11903607
1511820010000;11813421
1511820296000;11711347
1511820582000;11612275
1511820867000;11523091
1511821153000;11437358
1511821439000;11356000
1511821724000;11272748
1511822010000;11187676
1511822295000;11105066
1511822581000;11023791
1511822867000;10944262
1511823152000;10866207
1511823438000;10790092
1511823724000;10698145
1511824009000;10587754
1511824295000;10493411
1511824580000;10424243
1511824866000;10361417
1511825152000;10306264
1511825437000;10253950
1511825723000;10203474
1511826009000;10154581
1511826294000;10111329
1511826580000;10071755
1511826865000;10036894
1511827151000;9999894
1511827437000;9958284
1511827722000;9920579
1511828008000;9890785
1511828294000;9864732
1511828579000;9843093
1511828865000;9827303
1511829150000;9813332
1511829436000;9802231
1511829722000;9793637
1511830007000;9787352
1511830293000;9783420
1511830579000;9779951
1511830864000;9776107
1511831150000;9771877
1511831435000;9774390
1511831721000;9773706
1511832007000;9768830
1511832292000;9771306
1511832578000;9754445
1511832864000;9755469
1511833149000;9759357
1511833435000;9755725
1511833720000;9760777
1511834006000;9762898
1511834292000;9766085
1511834577000;9766440
1511834863000;9771462
1511835149000;9769141
1511835434000;9773421
1511835720000;9772197
1511836005000;9780403
1511836291000;9779404
1511836577000;9771780
1511836862000;9778260
1511837148000;9778968
1511837434000;9776118
1511837719000;9778533
1511838005000;9774346
1511838290000;9758469
1511838576000;9719102
1511838862000;9711343
1511839147000;9704925
1511839433000;9701137
1511839719000;9695264
1511840004000;9683231
1511840290000;9679573
1511840575000;9689423
1511840861000;9686592
1511841147000;9683583
1511841432000;9689953
1511841718000;9690484
1511842004000;9694332
1511842289000;9708558
1511842575000;9725730
1511842860000;9743480
1511843146000;9765089
1511843432000;9784371
1511843717000;9803206
1511844003000;9815273
1511844289000;9806283
1511844574000;9818425
1511844860000;9824266
1511845145000;9828252
1511845431000;9821168
1511845717000;9815016
1511846002000;9811509
1511846288000;9808779
1511846574000;9805810
1511846859000;9800788
1511847145000;9796128
1511847431000;9791931
1511847716000;9770763
1511848002000;9751452
1511848287000;9748135
1511848573000;9746139
1511848859000;9742578
1511849144000;9735647
1511849430000;9740459
1511849716000;9740398
1511850001000;9739886
1511850287000;9744709
1511850572000;9744126
1511850858000;9748959
1511851144000;9758951
1511851429000;9769784
1511851715000;9783388
1511852001000;9798220
1511852286000;9812764
1511852572000;9826220
1511852857000;9840094
1511853143000;9860897
1511853429000;9883868
1511853714000;9908965
1511854000000;9935388
1511854286000;9960182
1511854571000;9986092
1511854857000;10014530
1511855142000;10042599
1511855428000;10071930
1511855714000;10104802
1511855999000;10138553
1511856285000;10170347
1511856571000;10201295
1511856856000;10234220
1511857142000;10265693
1511857427000;10251164
1511857713000;10323817
1511857999000;10356904
1511858284000;10389754
1511858570000;10424143
1511858856000;10458139
1511859141000;10490792
1511859427000;10521475
1511859712000;10549396
1511859998000;10578386
1511860284000;10611136
1511860569000;10643573
1511860855000;10675674
1511861141000;10710461
1511861426000;10742013
1511861712000;10770921
1511861997000;10803748
1511862283000;10838001
1511862569000;10878929
1511862854000;10923335
1511863140000;10967857
1511863426000;11012970
1511863711000;11062164
1511863997000;11112583
1511864282000;11171370
1511864568000;11232059
1511864854000;11283699
1511865139000;11350530
1511865425000;11423682
1511865711000;11494484
1511865996000;11566248
1511866282000;11639903
1511866567000;11718361
1511866853000;11800011
1511867139000;11881939
1511867424000;11965269
1511867710000;12051099
1511867996000;12149155
1511868281000;12245505
1511868567000;12340060
1511868852000;12429944
1511869138000;12521874
1511869424000;12613980
1511869709000;12710698
1511869995000;12801913
1511870281000;12888410
1511870566000;12972182
1511870852000;13058420
1511871137000;13147211
1511871423000;13231985
1511871709000;13318442
1511871994000;13407079
1511872280000;13491124
1511872566000;13575436
1511872851000;13653630
1511873137000;13717348
1511873422000;13792750
1511873708000;13863422
1511873994000;13935505
1511874279000;14002629
1511874565000;14075173
1511874851000;14152924
1511875136000;14231372
1511875422000;14299901
1511875707000;14357905
1511875993000;14414087
1511876279000;14469262
1511876564000;14523423
1511876850000;14572158
1511877136000;14613240
1511877421000;14646586
1511877707000;14671626
1511877992000;14694123
1511878278000;14717241
1511878564000;14737258
1511878849000;14756297
1511879135000;14768824
1511879421000;14772661
1511879706000;14768879
1511879992000;14771429
1511880277000;14767686
1511880563000;14758245
1511880849000;14736266
1511881134000;14706399
1511881420000;14644518
1511881706000;14603342
1511881991000;14577223
1511882277000;14553908
1511882562000;14530499
1511882848000;14506029
1511883134000;14470110
1511883419000;14435696
1511883705000;14407083
1511883991000;14376136
1511884276000;14346358
1511884562000;14317030
1511884847000;14282551
1511885133000;14241009
1511885419000;14214535
1511885704000;14187713
1511885990000;14172817
1511886276000;14160866
1511886561000;14148371
1511886847000;14132026
1511887132000;14118874
1511887418000;14108546
1511887704000;14096613
1511887989000;14097889
1511888275000;14089099
1511888561000;14076904
1511888846000;14069652
1511889132000;14080399
1511889417000;14076957
1511889703000;14071699
1511889989000;14082917
1511890274000;14081757
1511890560000;14085436
1511890846000;14089742
1511891131000;14094345
1511891417000;14094273
1511891703000;14085138
1511891988000;14086388
1511892274000;14077929
1511892559000;14069356
1511892845000;14065046
1511893131000;14041764
1511893416000;14040526
1511893702000;14036323
1511893988000;14031839
1511894273000;14028686
1511894559000;14023729
1511894844000;14015717
1511895130000;14007458
1511895416000;13996669
1511895701000;13976118
1511895987000;13949544
1511896273000;13925528
1511896558000;13901708
1511896844000;13877658
1511897129000;13854847
1511897415000;13828721
1511897701000;13797245
1511897986000;13767314
1511898272000;13735964
1511898558000;13703216
1511898843000;13666187
1511899129000;13621128
1511899414000;13560006
1511899700000;13503500
1511899986000;13429078
1511900271000;13368811
1511900557000;13316599
1511900843000;13262344
1511901128000;13201282
1511901414000;13136261
1511901699000;13071707
1511901985000;13003577
1511902271000;12931425
1511902556000;12857350
1511902842000;12773028
1511903128000;12673765
1511903413000;12581088
1511903699000;12489102
1511903984000;12399377
1511904270000;12285104
1511904556000;12167450
1511904841000;12071445
1511905127000;11980732
1511905413000;11896409
1511905698000;11815061
1511905984000;11734076
1511906269000;11630453
1511906555000;11527473
1511906841000;11435129
1511907126000;11336815
1511907412000;11244063
1511907698000;11165819
1511907983000;11088347
1511908269000;11008481
1511908554000;10927276
1511908840000;10848231
1511909126000;10772374
1511909411000;10698422
1511909697000;10626122
1511909983000;10547041
1511910268000;10434605
1511910554000;10329055
1511910839000;10260020
1511911125000;10199612
1511911411000;10141189
1511911696000;10089706
1511911982000;10038712
1511912268000;9990382
1511912553000;9945210
1511912839000;9905052
1511913124000;9867298
1511913410000;9814998
1511913696000;9768867
1511913981000;9729270
1511914267000;9695206
1511914553000;9668586
1511914838000;9645344
1511915124000;9625787
1511915409000;9611025
1511915695000;9165191
1511915981000;9370407
1511916266000;9418946
1511916552000;9213910
1511916838000;9325275
1511917123000;9353340
1511917409000;9280144
1511917694000;9320531
1511917980000;9342936
1511918266000;9315788
1511918551000;9332532
1511918837000;9347686
1511919123000;9361562
1511919408000;9376344
1511919694000;9387151
1511919979000;9394594
1511920265000;9405327
1511920551000;9416887
1511920836000;9425990
1511921122000;9435396
1511921408000;9444281
1511921693000;9456202
1511921979000;9469355
1511922264000;9483077
1511922550000;9493255
1511922836000;9499601
1511923121000;9509044
1511923407000;9514650
1511923693000;9521739
1511923978000;9528672
1511924264000;9531012
1511924549000;9524628
1511924835000;9515500
1511925121000;9509228
1511925406000;9505534
1511925692000;9502023
1511925978000;9498631
1511926263000;9494356
1511926549000;9496114
1511926834000;9495782
1511927120000;9495491
1511927406000;9496986
1511927691000;9496627
1511927977000;9497858
1511928263000;9504620
1511928548000;9516514
1511928834000;9512255
1511929119000;9536401
1511929405000;9555716
1511929691000;9572023
1511929976000;9595106
1511930262000;9619728
1511930548000;9641774
1511930833000;9661392
1511931119000;9679490
1511931404000;9694464
1511931690000;9701073
1511931976000;9701722
1511932261000;9703764
1511932547000;9705966
1511932833000;9708405
1511933118000;9709234
1511933404000;9707646
1511933690000;9703881
1511933975000;9702322
1511934261000;9697275
1511934546000;9694863
1511934832000;9694099
1511935118000;9694056
1511935403000;9688249
1511935689000;9690866
1511935975000;9693452
1511936260000;9692975
1511936546000;9692848
1511936831000;9697701
1511937117000;9702843
1511937403000;9712518
1511937688000;9724928
1511937974000;9736603
1511938260000;9751839
1511938545000;9771479
1511938831000;9789071
1511939116000;9806143
1511939402000;9827247
1511939688000;9852195
1511939973000;9879907
1511940259000;9903661
1511940545000;9929551
1511940830000;9951668
1511941116000;9977950
1511941401000;10004715
1511941687000;10032718
1511941973000;10063408
1511942258000;10094923
1511942544000;10127459
1511942830000;10158256
1511943115000;10189434
1511943401000;10222049
1511943686000;10256324
1511943972000;10291236
1511944258000;10322331
1511944543000;10352474
1511944829000;10385586
1511945115000;10418401
1511945400000;10448706
1511945686000;10472128
1511945971000;10499267
1511946257000;10529253
1511946543000;10562441
1511946828000;10597007
1511947114000;10631262
1511947400000;10666760
1511947685000;10700080
1511947971000;10729196
1511948256000;10762819
1511948542000;10800687
1511948828000;10840565
1511949113000;10879923
1511949399000;10921405
1511949685000;10964388
1511949970000;11008394
1511950256000;11060531
1511950541000;11113478
1511950827000;11165129
1511951113000;11228531
1511951398000;11291839
1511951684000;11355038
1511951970000;11425000
1511952255000;11498631
1511952541000;11572730
1511952826000;11645284
1511953112000;11722152
1511953398000;11805573
1511953683000;11890507
1511953969000;11980329
1511954255000;12071294
1511954540000;12163150
1511954826000;12256222
1511955111000;12349687
1511955397000;12445086
1511955683000;12540158
1511955968000;12633316
1511956254000;12729406
1511956540000;12823231
1511956825000;12909754
1511957111000;12993603
1511957396000;13087472
1511957682000;13179410
1511957968000;13273697
1511958253000;13366073
1511958539000;13451658
1511958825000;13537772
1511959110000;13622006
1511959396000;13708892
1511959681000;13795646
1511959967000;13871899
1511960253000;13945792
1511960538000;14017518
1511960824000;14090832
1511961110000;14169098
1511961395000;14246169
1511961681000;14318057
1511961966000;14385534
1511962252000;14448310
1511962538000;14508256
1511962823000;14566819
1511963109000;14618146
1511963395000;14660219
1511963680000;14701662
1511963966000;14735669
1511964251000;14763013
1511964537000;14790800
1511964823000;14817627
1511965108000;14838497
1511965394000;14850521
1511965680000;14855659
1511965965000;14851479
1511966251000;14846534
1511966536000;14826776
1511966822000;14804874
1511967108000;14789884
1511967393000;14765386
1511967679000;14721583
1511967965000;14666114
1511968250000;14636983
1511968536000;14614943
1511968821000;14590000
1511969107000;14563992
1511969393000;14531964
1511969678000;14483141
1511969964000;14454607
1511970250000;14426060
1511970535000;14393832
1511970821000;14360809
1511971106000;14329322
1511971392000;14285753
1511971678000;14244598
1511971963000;14214561
1511972249000;14191748
1511972535000;14170980
1511972820000;14150613
1511973106000;14128873
1511973391000;14108539
1511973677000;14092859
1511973963000;14077185
1511974248000;14060875
1511974534000;14045585
1511974820000;14032932
1511975105000;14016794
1511975391000;14006128
1511975676000;13996336